tezt/_regressions/protocol.alpha.operation.raw.out

./tezos-codec encode alpha.operation.raw from '{ "branch": "BKpbfCvh777DQHnXjU2sqHvVUNZ7dBAdqEfKkdw8EGSkD9LSYXb",
  "data":
    "000000053366804fe735e06e97e26da8236b6341b91c625d5e82b3524ec0a88cc982365e70f8a5b9bc65df2ea6d21ee244cc3a96fb33031c394c78b1179ff1b8a44237740c" }'
0e5751c026e543b2e8ab2eb06099daa1d1e5df47778f7787faab45cdf12fe3a8000000053366804fe735e06e97e26da8236b6341b91c625d5e82b3524ec0a88cc982365e70f8a5b9bc65df2ea6d21ee244cc3a96fb33031c394c78b1179ff1b8a44237740c

./tezos-codec decode alpha.operation.raw from 0e5751c026e543b2e8ab2eb06099daa1d1e5df47778f7787faab45cdf12fe3a8000000053366804fe735e06e97e26da8236b6341b91c625d5e82b3524ec0a88cc982365e70f8a5b9bc65df2ea6d21ee244cc3a96fb33031c394c78b1179ff1b8a44237740c
{ "branch": "BKpbfCvh777DQHnXjU2sqHvVUNZ7dBAdqEfKkdw8EGSkD9LSYXb",
  "data":
    "000000053366804fe735e06e97e26da8236b6341b91c625d5e82b3524ec0a88cc982365e70f8a5b9bc65df2ea6d21ee244cc3a96fb33031c394c78b1179ff1b8a44237740c" }
